…
Instead, pass the multiple grouping variables to `split` via
`interaction()`. This approach allows you to use any number of grouping
variables and the output always works with `to_df()`.

``` r
# Recommended
sp_quadrat <- interaction(census1$sp, census1$quadrat)
recruitment <- recruitment_impl(
  census1, census2, 
  split1 = sp_quadrat, 
  quiet = TRUE
)
to_df(recruitment)
#> # A tibble: 540 x 9
#>    groups         N2     R  rate lower  upper  time date1 date2
#>    <chr>       <dbl> <dbl> <dbl> <dbl>  <dbl> <dbl> <dbl> <dbl>
#>  1 MIRGAR.102      0     0    NA    NA NA     NA    18792    NA
#>  2 PREMON.1110     1     0     0     0  0.411  4.48 18918 20556
#>  3 INGLAU.115      1     0     0     0  0.413  4.46 18934 20564
#>  4 IXOFER.117      1     0     0     0  0.404  4.56 18961 20627
#>  5 BUCTET.1223     1     0     0     0  0.410  4.50 19058 20703
#>  6 PSYBRA.1318     1     0     0     0  0.412  4.48 19011 20646
#>  7 MYRDEF.1321     1     0     0     0  0.410  4.50 19031 20676
#>  8 HIRRUG.1402     1     0     0     0  0.398  4.64 18808 20502
#>  9 MANBID.1502     0     0    NA    NA NA     NA    18812    NA
#> 10 MATDOM.1505     1     0     0     0  0.404  4.56 18854 20521
#> # ... with 530 more rows
```

The same applies for other demography
functions.

``` r
to_df(mortality_impl(census1, census2, split1 = sp_quadrat, quiet = TRUE))
#> # A tibble: 540 x 10
#>    groups          N     D  rate  lower   upper  time date1 date2 dbhmean
#>    <chr>       <dbl> <dbl> <dbl>  <dbl>   <dbl> <dbl> <dbl> <dbl>   <dbl>
#>  1 MIRGAR.102      1     1   Inf 0.0374 Inf      4.61 18792 20475    29.4
#>  2 PREMON.1110     1     0     0 0        0.411  4.48 18918 20556   106  
#>  3 INGLAU.115      1     0     0 0        0.413  4.46 18934 20564    30.5
#>  4 IXOFER.117      1     0     0 0        0.404  4.56 18961 20627    73  
#>  5 BUCTET.1223     1     0     0 0        0.410  4.50 19058 20703   661  
#>  6 PSYBRA.1318     1     0     0 0        0.412  4.48 19011 20646    14  
#>  7 MYRDEF.1321     1     0     0 0        0.410  4.50 19031 20676    30.5
#>  8 HIRRUG.1402     1     0     0 0        0.398  4.64 18808 20502    30.4
#>  9 MANBID.1502     1     1   Inf 0.0371 Inf      4.64 18812 20506    15.7
#> 10 MATDOM.1505     1     0     0 0        0.404  4.56 18854 20521   210  
#> # ... with 530 more rows
growth <- to_df(growth_impl(census1, census2, split1 = sp_quadrat, quiet = TRUE))
growth
#> # A tibble: 540 x 8
#>    groups         rate     N  clim dbhmean  time date1 date2
#>    <chr>         <dbl> <dbl> <dbl>   <dbl> <dbl> <dbl> <dbl>
#>  1 MIRGAR.102   NA         0    NA    NA   NA       NA    NA
#>  2 PREMON.1110   1.56      1    NA   106    4.48 18918 20556
#>  3 INGLAU.115    0.224     1    NA    30.5  4.46 18934 20564
#>  4 IXOFER.117    0.219     1    NA    73    4.56 18961 20627
#>  5 BUCTET.1223   3.33      1    NA   661    4.50 19058 20703
#>  6 PSYBRA.1318   0.447     1    NA    14    4.48 19011 20646
#>  7 MYRDEF.1321   1.07      1    NA    30.5  4.50 19031 20676
#>  8 HIRRUG.1402  -0.474     1    NA    30.4  4.64 18808 20502
#>  9 MANBID.1502  NA         0    NA    NA   NA       NA    NA
#> 10 MATDOM.1505   0.876     1    NA   210    4.56 18854 20521
#> # ... with 530 more rows
```

A simple way to separate the grouping variables is with
`tidyr::separate()`.

``` r
tidyr::separate(
  growth, 
  groups, into = c("species", "quadrats")
)
#> # A tibble: 540 x 9
#>    species quadrats    rate     N  clim dbhmean  time date1 date2
#>    <chr>   <chr>      <dbl> <dbl> <dbl>   <dbl> <dbl> <dbl> <dbl>
#>  1 MIRGAR  102       NA         0    NA    NA   NA       NA    NA
#>  2 PREMON  1110       1.56      1    NA   106    4.48 18918 20556
#>  3 INGLAU  115        0.224     1    NA    30.5  4.46 18934 20564
#>  4 IXOFER  117        0.219     1    NA    73    4.56 18961 20627
#>  5 BUCTET  1223       3.33      1    NA   661    4.50 19058 20703
#>  6 PSYBRA  1318       0.447     1    NA    14    4.48 19011 20646
#>  7 MYRDEF  1321       1.07      1    NA    30.5  4.50 19031 20676
#>  8 HIRRUG  1402      -0.474     1    NA    30.4  4.64 18808 20502
#>  9 MANBID  1502      NA         0    NA    NA   NA       NA    NA
#> 10 MATDOM  1505       0.876     1    NA   210    4.56 18854 20521
#> # ... with 530 more rows
```
…
